Splits a dataframe row-wise or col-wise into any arbitrary number of dataframes — unrbind • messy
…
uncbind(dplyr::tibble(mtcars), probs = c(0.5, 0.3, 0.2))
#> [[1]]
#> # A tibble: 32 × 6
#>       hp    wt  gear  disp    am    vs
#>    <dbl> <dbl> <dbl> <dbl> <dbl> <dbl>
#>  1   110  2.62     4  160      1     0
#>  2   110  2.88     4  160      1     0
#>  3    93  2.32     4  108      1     1
#>  4   110  3.22     3  258      0     1
#>  5   175  3.44     3  360      0     0
#>  6   105  3.46     3  225      0     1
#>  7   245  3.57     3  360      0     0
#>  8    62  3.19     4  147.     0     1
#>  9    95  3.15     4  141.     0     1
#> 10   123  3.44     4  168.     0     1
#> # ℹ 22 more rows
#> 
#> [[2]]
#> # A tibble: 32 × 3
#>     qsec   cyl  carb
#>    <dbl> <dbl> <dbl>
#>  1  16.5     6     4
#>  2  17.0     6     4
#>  3  18.6     4     1
#>  4  19.4     6     1
#>  5  17.0     8     2
#>  6  20.2     6     1
#>  7  15.8     8     4
#>  8  20       4     2
#>  9  22.9     4     2
#> 10  18.3     6     4
#> # ℹ 22 more rows
#> 
#> [[3]]
#> # A tibble: 32 × 2
#>      mpg  drat
#>    <dbl> <dbl>
#>  1  21    3.9 
#>  2  21    3.9 
#>  3  22.8  3.85
#>  4  21.4  3.08
#>  5  18.7  3.15
#>  6  18.1  2.76
#>  7  14.3  3.21
#>  8  24.4  3.69
#>  9  22.8  3.92
#> 10  19.2  3.92
#> # ℹ 22 more rows
…
